{
  "lookup": {
    "eJyLrq6NBQAEOAGx": "action_listen",
    "eJyLrq7VUaguKEoti09MLsnMz7NSqIYw4vMSc1OtFKCcnMziktQ8oNrS4tQioJrMPCC3xEqhJDEHSBcXFAEFamtjAba4HpY=": "utter_talentsprint",
    "eJyLrq7VUaguKEoti09MLsnMz7NSqIYw4vMSc1OtFKCcnMziktQ8oNrS4tQioJrMPCC3xEqhJDEHSBcXFAEFagkYVVpSkloUj6KDgHmxAB9TPco=": "action_listen",
    "eJyLrq7VUaguKEoti09MLsnMz7NSqIYw4vMSc1OtFKCcnMziktQ8oNrS4tQioJrMPCC3xEohvSg1taS2NhYA6dwbhQ==": "utter_greet",
    "eJyLrq7VUaguKEoti09MLsnMz7NSqIYw4vMSc1OtFKCcnMziktQ8oNrS4tQioJrMPCC3xEohvSg1taSWgBmlJSWpRfEQpbhMiAUAQvc0lw==": "action_listen",
    "eJyLrq7VUaguKEoti09MLsnMz7NSqIYw4vMSc1OtFKCcnMziktQ8oNrS4tQioJrMPCC3xEohvSg1taSWgBmlJSWpRfEQpeSZQMAVufn5KSDzE4EGxQIAPEFQdQ==": "utter_happy",
    "eJyLrq7VUaguKEoti09MLsnMz7NSqIYw4vMSc1OtFKCcnMziktQ8oNrS4tQioJrMPCC3xEohvSg1taSWgBmlJSWpRfEQpeSZQMAVufn5KSDzE4l0SkZiQUElfmNiAVKZa5w=": "action_listen",
    "eJyLrq7VUaguKEoti09MLsnMz7NSqIYw4vMSc1OtFKCcnMziktQ8oNrS4tQioJrMPCC3xEohOT8nJzU9tbi2NhYAPmgcvA==": "utter_colleges",
    "eJyLrq7VUaguKEoti09MLsnMz7NSqIYw4vMSc1OtFKCcnMziktQ8oNrS4tQioJrMPCC3xEohOT8nJzU9tbiWgDGlJSWpRfFw1XjMiQUANOY4PA==": "action_listen",
    "eJyLrq7VUaguKEoti09MLsnMz7NSqIYw4vMSc1OtFKCcnMziktQ8oNrS4tQioJrMPCC3xEohNa8oPyentjYWAAYGG/o=": "utter_enroll",
    "eJyLrq7VUaguKEoti09MLsnMz7NSqIYw4vMSc1OtFKCcnMziktQ8oNrS4tQioJrMPCC3xEohNa8oPyenloAhpSUlqUXxULU4zYgFAOsYNfY=": "action_listen",
    "eJyLrq7VUaguKEoti09MLsnMz7NSqIYw4vMSc1OtFKCcnMziktQ8oNrS4tQioJrMPCC3xEohPT8/PSe1tjYWAAW/G+s=": "utter_google",
    "eJyLrq7VUaguKEoti09MLsnMz7NSqIYw4vMSc1OtFKCcnMziktQ8oNrS4tQioJrMPCC3xEohPT8/PSe1loAhpSUlqUXxULU4zYgFAOTfNck=": "action_listen",
    "eJyLrq7VUaguKEoti09MLsnMz7NSqIYw4vMSc1OtFKCcnMziktQ8oNrS4tQioJrMPCC3xEohvSg1taSWgBmlJSWpRfEQpeSZQMAVufn5KfGleRmJBQWVtbWxAN75UWc=": "utter_cheer_up",
    "eJydjlEKgCAQRK/iATqBV4lYxJYUchVdgxDv3oL9G/0MM/B4zNr6olrKeIGx7CNp1UYBMgG1esfpCyMJWwtmYTzJZK2OjMh94qjMmGGg/wyTFyHGHSo5k9L97Yx1KFnTzLU9XiFuqQ==": "action_listen",
    "eJyljlEKgCAQBa/iATqBV4kQsUcKtYqtQYh3b6H+jfpZ9sEwzFjboGrKOIx1HCJpVe/HkN2g1TPWsDNI2LIjCxNIJmu1ZIBbx1GYkc2NfjN0KrYYZ1PI25TOdzHOQ25J/1ydrBkkiukCrvCIFg==": "utter_goodbye",
    "eJyljlEKgCAQRK/iATqBV4kQq6GEXMXWIKS7t1C/YdTPMgPD29eWo1ElJmzGDuwCaVWuYMh6aHWXxa0Mkm1ekWTjSCprNSWAjwojMyOZa/qNULHwIYwm02xj3N/JDDPk5viPVdEaQS91Jnna73hCdCeqn6GT": "action_listen",
    "eJyLrq7VUaguKEoti09MLsnMz7NSqIYw4vMSc1OtFKCcnMziktQ8oNrS4tQioJrMPCC3xEohOb+4pLY2FgDOphsn": "utter_cost",
    "eJyLrq7VUaguKEoti09MLsnMz7NSqIYw4vMSc1OtFKCcnMziktQ8oNrS4tQioJrMPCC3xEohOb+4pJaAEaUlJalF8WCVOPTHAgCn7jN9": "action_listen",
    "eJyLrq7VUaguKEoti09MLsnMz7NSqIYw4vMSc1OtFKCcnMziktQ8oNrS4tQioJrMPCC3xEohvSg1taSWgBmlJSWpRfEQpeSZQMAVJanJGeWZxam1tbEAnEFPsA==": "utter_techwise",
    "eJyLrq7VUaguKEoti09MLsnMz7NSqIYw4vMSc1OtFKCcnMziktQ8oNrS4tQioJrMPCC3xEohvSg1taSWgBmlJSWpRfEQpeSZQMAVJanJGeWZxanEOQSuGo85sQDqmWtM": "action_listen",
    "eJydjsEJgDAQBFu5AqwgrYiEIKsemCiXUx8hvRtQ/Eby24VhmD7ljtIuOK0blbdgKD3DBudh6D0rR0Uo7BEhheFQrhqaBdBccRyqEPugbYZKhWJcLo74F/LRzZ5KjpsmFp/zcANkJ4V+": "utter_happy",
    "eJydjlEKgCAQBa/iATqBV4kQiWctlMm6FiHdPaHoL4z+3oNhmDYfjcqBsRrbCy1eq3wN4+0Mre4zURT4wqYILgz5ckWrgQE5Ko4kAjYX+s9QqRD040YR30Ie+renkmOdI56/xYw2hP1d0Z2wm575": "action_listen",
    "eJyLrq7VUaguKEoti09MLsnMz7NSqIYw4vMSc1OtFKCcnMziktQ8oNrS4tQioJrMPCC3xEohNSczPTMpMyezpLK2NhYAlrkeBQ==": "utter_eligibility",
    "eJyLrq7VUaguKEoti09MLsnMz7NSqIYw4vMSc1OtFKCcnMziktQ8oNrS4tQioJrMPCC3xEohNSczPTMpMyezpLKWgEmlJSWpRfHIGvCbFgsAT7U8Fw==": "action_listen",
    "eJyljlEKgCAQBa/iATqBV4kQsTWFXGVdgxDvnlD/Rv0s+2AYZq5tEjURHEob9hGlqPejUAeQ4hm7zwzY2ZKBOuOxT5ZiIwBuA0dhBlI3+s0wqAgxrqqg0ymd72KMg35L+ucaZGlrPYXWlgu/wIjb": "utter_happy",
    "eJyljlEKgCAQRK/iATqBV4kQsbWEXGVdg5DunmC/YdTPMgPD2zeWcxAlEuxKG3YBpSgtKNQepLjL5hID1m1OQHXjsFaWYiEAPjuMzAyk2vQboWPhQ5hVxlXHeLyTMSvUm+M/VkdLW+vIvxNq/x4R0wXtmqJW": "action_listen"
  }
}